<?xml version="1.0" encoding="UTF-8"?>
<glyph name="arrowright" format="2">
	<advance width="600"/>
	<unicode hex="2192"/>
	<note>
		arrowright
  </note>
	<outline>
		<contour>
			<point x="586" y="204" type="curve"/>
			<point x="586" y="204" type="line"/>
			<point x="586" y="224" type="line"/>
			<point x="503" y="264"/>
			<point x="427" y="320"/>
			<point x="385" y="396" type="curve"/>
			<point x="363" y="379" type="line"/>
			<point x="399" y="313"/>
			<point x="473" y="249"/>
			<point x="526" y="229" type="curve"/>
			<point x="14" y="228" type="line"/>
			<point x="14" y="198" type="line"/>
			<point x="526" y="199" type="line"/>
			<point x="473" y="179"/>
			<point x="399" y="115"/>
			<point x="363" y="49" type="curve"/>
			<point x="385" y="32" type="line"/>
			<point x="427" y="108"/>
			<point x="503" y="164"/>
		</contour>
	</outline>
</glyph>
