<?xml version="1.0" encoding="UTF-8"?>
<glyph name="M" format="2">
	<advance width="600"/>
	<unicode hex="004D"/>
	<note>
		M
  </note>
	<outline>
		<contour>
			<point x="482" y="553" type="line"/>
			<point x="318" y="64" type="line"/>
			<point x="282" y="64" type="line"/>
			<point x="118" y="553" type="line"/>
			<point x="118" y="30" type="line"/>
			<point x="184" y="30" type="line"/>
			<point x="184" y="0" type="line"/>
			<point x="32" y="0" type="line"/>
			<point x="32" y="30" type="line"/>
			<point x="88" y="30" type="line"/>
			<point x="88" y="560" type="line"/>
			<point x="32" y="560" type="line"/>
			<point x="32" y="590" type="line"/>
			<point x="137" y="590" type="line"/>
			<point x="300" y="103" type="line"/>
			<point x="463" y="590" type="line"/>
			<point x="570" y="590" type="line"/>
			<point x="570" y="560" type="line"/>
			<point x="512" y="560" type="line"/>
			<point x="512" y="30" type="line"/>
			<point x="568" y="30" type="line"/>
			<point x="568" y="0" type="line"/>
			<point x="416" y="0" type="line"/>
			<point x="416" y="30" type="line"/>
			<point x="482" y="30" type="line"/>
		</contour>
	</outline>
</glyph>
