<?xml version="1.0" encoding="UTF-8"?>
<glyph name="M.Mme" format="2">
	<advance width="600"/>
	<note>
		M.Mme
  </note>
	<outline>
		<contour>
			<point x="590" y="85" type="curve"/>
			<point x="590" y="85" type="line"/>
			<point x="566" y="102" type="line"/>
			<point x="532" y="54"/>
			<point x="504" y="16"/>
			<point x="482" y="16" type="curve"/>
			<point x="464" y="16"/>
			<point x="460" y="35"/>
			<point x="466" y="70" type="curve"/>
			<point x="557" y="590" type="line"/>
			<point x="527" y="590" type="line"/>
			<point x="327" y="124" type="line"/>
			<point x="410" y="590" type="line"/>
			<point x="380" y="590" type="line"/>
			<point x="258" y="284" type="line" smooth="yes"/>
			<point x="178" y="82"/>
			<point x="151" y="17"/>
			<point x="96" y="17" type="curve"/>
			<point x="43" y="17"/>
			<point x="22" y="72"/>
			<point x="44" y="123" type="curve"/>
			<point x="47" y="92"/>
			<point x="67" y="78"/>
			<point x="88" y="77" type="curve"/>
			<point x="110" y="76"/>
			<point x="140" y="94"/>
			<point x="141" y="126" type="curve"/>
			<point x="142" y="156"/>
			<point x="111" y="181"/>
			<point x="86" y="181" type="curve"/>
			<point x="41" y="181"/>
			<point x="9" y="132"/>
			<point x="9" y="84" type="curve"/>
			<point x="9" y="32"/>
			<point x="40" y="-13"/>
			<point x="93" y="-13" type="curve"/>
			<point x="171" y="-13"/>
			<point x="191" y="40"/>
			<point x="284" y="273" type="curve"/>
			<point x="355" y="452" type="line"/>
			<point x="274" y="0" type="line"/>
			<point x="305" y="0" type="line"/>
			<point x="506" y="471" type="line"/>
			<point x="437" y="75" type="line"/>
			<point x="424" y="15"/>
			<point x="449" y="-13"/>
			<point x="477" y="-13" type="curve"/>
			<point x="526" y="-13"/>
			<point x="549" y="29"/>
		</contour>
	</outline>
</glyph>
