<?xml version="1.0" encoding="UTF-8"?>
<glyph name="S" format="2">
	<advance width="600"/>
	<unicode hex="0053"/>
	<note>
		S
  </note>
	<outline>
		<contour>
			<point x="485" y="487" type="curve"/>
			<point x="485" y="487" type="line"/>
			<point x="472" y="540"/>
			<point x="385" y="573"/>
			<point x="297" y="573" type="curve"/>
			<point x="210" y="573"/>
			<point x="116" y="529"/>
			<point x="116" y="462" type="curve"/>
			<point x="116" y="388"/>
			<point x="171" y="358"/>
			<point x="269" y="339" type="curve"/>
			<point x="343" y="325" type="line" smooth="yes"/>
			<point x="453" y="304"/>
			<point x="535" y="252"/>
			<point x="535" y="156" type="curve"/>
			<point x="535" y="44"/>
			<point x="425" y="-13"/>
			<point x="309" y="-13" type="curve"/>
			<point x="195" y="-13"/>
			<point x="65" y="42"/>
			<point x="65" y="133" type="curve"/>
			<point x="65" y="174"/>
			<point x="88" y="203"/>
			<point x="123" y="203" type="curve"/>
			<point x="157" y="203"/>
			<point x="183" y="178"/>
			<point x="183" y="146" type="curve"/>
			<point x="183" y="97"/>
			<point x="123" y="80"/>
			<point x="99" y="111" type="curve"/>
			<point x="134" y="42"/>
			<point x="210" y="17"/>
			<point x="309" y="17" type="curve"/>
			<point x="420" y="17"/>
			<point x="505" y="70"/>
			<point x="505" y="156" type="curve"/>
			<point x="505" y="233"/>
			<point x="435" y="278"/>
			<point x="341" y="295" type="curve"/>
			<point x="263" y="309" type="line" smooth="yes"/>
			<point x="160" y="327"/>
			<point x="86" y="370"/>
			<point x="86" y="462" type="curve"/>
			<point x="86" y="550"/>
			<point x="195" y="603"/>
			<point x="297" y="603" type="curve"/>
			<point x="410" y="603"/>
			<point x="520" y="556"/>
			<point x="520" y="468" type="curve"/>
			<point x="520" y="427"/>
			<point x="495" y="397"/>
			<point x="461" y="397" type="curve"/>
			<point x="426" y="397"/>
			<point x="399" y="421"/>
			<point x="399" y="453" type="curve"/>
			<point x="399" y="502"/>
			<point x="461" y="520"/>
		</contour>
	</outline>
</glyph>
