<?xml version="1.0" encoding="UTF-8"?>
<glyph name="uni2199" format="2">
	<advance width="600"/>
	<unicode hex="2199"/>
	<note>
		uni2199
  </note>
	<outline>
		<contour>
			<point x="96" y="17" type="curve"/>
			<point x="96" y="17" type="line"/>
			<point x="110" y="3" type="line"/>
			<point x="197" y="33"/>
			<point x="291" y="47"/>
			<point x="374" y="23" type="curve"/>
			<point x="378" y="51" type="line"/>
			<point x="306" y="72"/>
			<point x="208" y="65"/>
			<point x="156" y="42" type="curve"/>
			<point x="519" y="403" type="line"/>
			<point x="498" y="424" type="line"/>
			<point x="135" y="63" type="line"/>
			<point x="158" y="114"/>
			<point x="166" y="212"/>
			<point x="144" y="284" type="curve"/>
			<point x="117" y="281" type="line"/>
			<point x="141" y="197"/>
			<point x="127" y="104"/>
		</contour>
	</outline>
</glyph>
