<?xml version="1.0" encoding="UTF-8"?>
<glyph name="Z" format="2">
	<advance width="600"/>
	<unicode hex="005A"/>
	<note>
		Z
  </note>
	<outline>
		<contour>
			<point x="514" y="590" type="line"/>
			<point x="97" y="590" type="line"/>
			<point x="73" y="303" type="line"/>
			<point x="103" y="301" type="line"/>
			<point x="125" y="560" type="line"/>
			<point x="476" y="560" type="line"/>
			<point x="80" y="30" type="line"/>
			<point x="80" y="0" type="line"/>
			<point x="498" y="0" type="line"/>
			<point x="522" y="287" type="line"/>
			<point x="492" y="290" type="line"/>
			<point x="470" y="30" type="line"/>
			<point x="117" y="30" type="line"/>
			<point x="514" y="560" type="line"/>
		</contour>
	</outline>
</glyph>
