<?xml version="1.0" encoding="UTF-8"?>
<glyph name="caron" format="1">
  <advance width="600"/>
  <unicode hex="02C7"/>
  <outline>
    <contour>
      <point x="565.2" y="577.2" type="line"/>
      <point x="333.6" y="471.6" type="line"/>
      <point x="153.6" y="577.2" type="line"/>
      <point x="159.6" y="590.4" type="line"/>
      <point x="333.6" y="507.6" type="line"/>
      <point x="559.2" y="590.4" type="line"/>
    </contour>
    <contour>
      <point x="337.2" y="442.8" type="move" name="_top"/>
    </contour>
  </outline>
</glyph>
