<?xml version="1.0" encoding="UTF-8"?>
<glyph name="plus" format="1">
  <advance width="600"/>
  <unicode hex="002B"/>
  <note>
    plus
  </note>
  <outline>
    <contour>
      <point x="285" y="200" type="line"/>
      <point x="85" y="200" type="line"/>
      <point x="85" y="230" type="line"/>
      <point x="285" y="230" type="line"/>
      <point x="285" y="430" type="line"/>
      <point x="315" y="430" type="line"/>
      <point x="315" y="230" type="line"/>
      <point x="515" y="230" type="line"/>
      <point x="515" y="200" type="line"/>
      <point x="315" y="200" type="line"/>
      <point x="315" y="0" type="line"/>
      <point x="285" y="0" type="line"/>
    </contour>
  </outline>
  <lib>
    <dict>
      <key>public.markColor</key>
      <string>0.67,0.95,0.38,1</string>
    </dict>
  </lib>
</glyph>
