<?xml version="1.0" encoding="UTF-8"?>
<glyph name="six" format="1">
  <advance width="600"/>
  <unicode hex="0036"/>
  <outline>
    <contour>
      <point x="106.8" y="283.2" type="curve"/>
      <point x="106.8" y="283.2" type="line"/>
      <point x="110.4" y="252" type="line"/>
      <point x="277" y="394"/>
      <point x="537" y="388"/>
      <point x="491" y="180" type="curve"/>
      <point x="484" y="148"/>
      <point x="470" y="120"/>
      <point x="447" y="95" type="curve"/>
      <point x="402" y="47"/>
      <point x="336" y="15"/>
      <point x="267.6" y="14.4" type="curve"/>
      <point x="-18" y="15"/>
      <point x="126" y="576"/>
      <point x="414" y="573.6" type="curve"/>
      <point x="483" y="573"/>
      <point x="530" y="548"/>
      <point x="536.4" y="500.4" type="curve"/>
      <point x="533" y="504"/>
      <point x="519" y="519"/>
      <point x="489.6" y="517.2" type="curve"/>
      <point x="463" y="516"/>
      <point x="439" y="486"/>
      <point x="438" y="459.6" type="curve"/>
      <point x="438" y="431"/>
      <point x="462" y="401"/>
      <point x="490.8" y="402" type="curve"/>
      <point x="535" y="403"/>
      <point x="553" y="431"/>
      <point x="561.6" y="466.8" type="curve"/>
      <point x="579" y="547"/>
      <point x="523" y="604"/>
      <point x="420" y="603.6" type="curve"/>
      <point x="249" y="603"/>
      <point x="131" y="459"/>
      <point x="92.4" y="279.6" type="curve"/>
      <point x="59" y="131"/>
      <point x="113" y="-13"/>
      <point x="261.6" y="-13.2" type="curve"/>
      <point x="302" y="-13"/>
      <point x="340" y="-5"/>
      <point x="376.8" y="10.8" type="curve"/>
      <point x="450" y="43"/>
      <point x="504" y="104"/>
      <point x="520.8" y="180" type="curve"/>
      <point x="573" y="410"/>
      <point x="296" y="439"/>
    </contour>
  </outline>
  <lib>
    <dict>
      <key>public.markColor</key>
      <string>0.97,0.9,0,1</string>
    </dict>
  </lib>
</glyph>
