<?xml version="1.0" encoding="UTF-8"?>
<glyph name="degree" format="2">
	<advance width="600"/>
	<unicode hex="00B0"/>
	<outline>
		<contour>
			<point x="300" y="287" type="curve"/>
			<point x="300" y="287" type="line"/>
			<point x="398" y="287"/>
			<point x="452" y="361"/>
			<point x="452" y="440" type="curve"/>
			<point x="452" y="518"/>
			<point x="398" y="592"/>
			<point x="300" y="592" type="curve"/>
			<point x="201" y="592"/>
			<point x="147" y="518"/>
			<point x="147" y="440" type="curve"/>
			<point x="147" y="361"/>
			<point x="201" y="287"/>
		</contour>
		<contour>
			<point x="300" y="361" type="curve"/>
			<point x="300" y="361" type="line"/>
			<point x="255" y="361"/>
			<point x="221" y="395"/>
			<point x="221" y="440" type="curve"/>
			<point x="221" y="484"/>
			<point x="255" y="518"/>
			<point x="300" y="518" type="curve"/>
			<point x="344" y="518"/>
			<point x="378" y="484"/>
			<point x="378" y="440" type="curve"/>
			<point x="378" y="395"/>
			<point x="344" y="361"/>
		</contour>
	</outline>
</glyph>
