<?xml version="1.0" encoding="UTF-8"?>
<glyph name="N" format="2">
	<advance width="600"/>
	<unicode hex="004E"/>
	<anchor x="300" y="603" name="top"/>
	<outline>
		<contour>
			<point x="547" y="0" type="line"/>
			<point x="547" y="590" type="line"/>
			<point x="447" y="590" type="line"/>
			<point x="447" y="127" type="line"/>
			<point x="181" y="590" type="line"/>
			<point x="53" y="590" type="line"/>
			<point x="53" y="0" type="line"/>
			<point x="153" y="0" type="line"/>
			<point x="153" y="449" type="line"/>
			<point x="411" y="0" type="line"/>
		</contour>
	</outline>
</glyph>
