<?xml version="1.0" encoding="UTF-8"?>
<glyph name="r" format="2">
	<advance width="600"/>
	<unicode hex="0072"/>
	<guideline x="125" y="380" angle="0"/>
	<outline>
		<contour>
			<point x="437" y="276" type="curve"/>
			<point x="437" y="276" type="line"/>
			<point x="527" y="276" type="line"/>
			<point x="527" y="315" type="line"/>
			<point x="526" y="402"/>
			<point x="477" y="442"/>
			<point x="377" y="442" type="curve"/>
			<point x="288" y="442"/>
			<point x="236" y="419"/>
			<point x="163" y="325" type="curve"/>
			<point x="164" y="430" type="line"/>
			<point x="74" y="430" type="line"/>
			<point x="74" y="0" type="line"/>
			<point x="164" y="0" type="line"/>
			<point x="164" y="210" type="line"/>
			<point x="209" y="264" type="line" smooth="yes"/>
			<point x="274" y="342"/>
			<point x="308" y="357"/>
			<point x="366" y="357" type="curve"/>
			<point x="419" y="357"/>
			<point x="436" y="332"/>
		</contour>
	</outline>
</glyph>
