<?xml version="1.0" encoding="UTF-8"?>
<glyph name="Atilde" format="2">
	<advance width="600"/>
	<unicode hex="00C3"/>
	<note>
		Atilde
  </note>
	<outline>
		<contour>
			<point x="541" y="655" type="curve"/>
			<point x="541" y="655" type="line"/>
			<point x="516" y="656"/>
			<point x="493" y="668"/>
			<point x="479" y="681" type="curve"/>
			<point x="454" y="704"/>
			<point x="443" y="718"/>
			<point x="419" y="718" type="curve"/>
			<point x="406" y="718"/>
			<point x="381" y="697"/>
			<point x="352" y="665" type="curve"/>
			<point x="342" y="654"/>
			<point x="319" y="652"/>
			<point x="307" y="665" type="curve"/>
			<point x="298" y="674"/>
			<point x="297" y="692"/>
			<point x="307" y="703" type="curve"/>
			<point x="351" y="751"/>
			<point x="386" y="776"/>
			<point x="420" y="776" type="curve"/>
			<point x="443" y="776"/>
			<point x="466" y="766"/>
			<point x="484" y="750" type="curve"/>
			<point x="507" y="729"/>
			<point x="523" y="714"/>
			<point x="541" y="714" type="curve"/>
			<point x="564" y="714"/>
			<point x="579" y="731"/>
			<point x="607" y="765" type="curve"/>
			<point x="616" y="776"/>
			<point x="639" y="779"/>
			<point x="650" y="771" type="curve"/>
			<point x="664" y="760"/>
			<point x="663" y="739"/>
			<point x="654" y="728" type="curve"/>
			<point x="614" y="679"/>
			<point x="578" y="655"/>
		</contour>
		<contour>
			<point x="477" y="603" type="curve"/>
			<point x="477" y="603" type="line"/>
			<point x="448" y="603"/>
			<point x="419" y="589"/>
			<point x="370" y="517" type="curve"/>
			<point x="216" y="293" type="line"/>
			<point x="100" y="294" type="line" smooth="yes"/>
			<point x="81" y="294"/>
			<point x="61" y="281"/>
			<point x="61" y="260" type="curve"/>
			<point x="61" y="237"/>
			<point x="74" y="225"/>
			<point x="100" y="225" type="curve"/>
			<point x="169" y="225" type="line"/>
			<point x="65" y="74" type="line"/>
			<point x="49" y="48"/>
			<point x="27" y="19"/>
			<point x="51" y="-1" type="curve"/>
			<point x="73" y="-19"/>
			<point x="101" y="0"/>
			<point x="123" y="36" type="curve"/>
			<point x="250" y="225" type="line"/>
			<point x="456" y="225" type="line"/>
			<point x="434" y="47" type="line" smooth="yes"/>
			<point x="430" y="12"/>
			<point x="440" y="-12"/>
			<point x="461" y="-12" type="curve"/>
			<point x="484" y="-12"/>
			<point x="499" y="3"/>
			<point x="504" y="48" type="curve"/>
			<point x="556" y="501" type="line" smooth="yes"/>
			<point x="561" y="541"/>
			<point x="554" y="603"/>
		</contour>
		<contour>
			<point x="464" y="293" type="curve"/>
			<point x="464" y="293" type="line"/>
			<point x="295" y="293" type="line"/>
			<point x="418" y="475" type="line" smooth="yes"/>
			<point x="451" y="525"/>
			<point x="463" y="533"/>
			<point x="474" y="533" type="curve"/>
			<point x="498" y="533"/>
			<point x="492" y="523"/>
		</contour>
	</outline>
</glyph>
