<?xml version="1.0" encoding="UTF-8"?>
<glyph name="emptyset" format="2">
	<advance width="600"/>
	<unicode hex="2205"/>
	<outline>
		<contour>
			<point x="590" y="501" type="curve"/>
			<point x="590" y="501" type="line"/>
			<point x="573" y="514"/>
			<point x="551" y="512"/>
			<point x="531" y="499" type="curve"/>
			<point x="496" y="561"/>
			<point x="432" y="603"/>
			<point x="325" y="603" type="curve"/>
			<point x="293" y="603"/>
			<point x="275" y="585"/>
			<point x="275" y="568" type="curve"/>
			<point x="275" y="538"/>
			<point x="305" y="533"/>
			<point x="325" y="533" type="curve"/>
			<point x="386" y="533"/>
			<point x="442" y="506"/>
			<point x="471" y="449" type="curve"/>
			<point x="105" y="141" type="line"/>
			<point x="101" y="154"/>
			<point x="99" y="170"/>
			<point x="99" y="187" type="curve"/>
			<point x="99" y="250"/>
			<point x="133" y="323"/>
			<point x="180" y="369" type="curve"/>
			<point x="212" y="401"/>
			<point x="258" y="428"/>
			<point x="296" y="429" type="curve"/>
			<point x="334" y="430"/>
			<point x="356" y="436"/>
			<point x="356" y="464" type="curve"/>
			<point x="356" y="488"/>
			<point x="318" y="499"/>
			<point x="296" y="499" type="curve"/>
			<point x="240" y="499"/>
			<point x="165" y="461"/>
			<point x="114" y="405" type="curve"/>
			<point x="61" y="346"/>
			<point x="29" y="267"/>
			<point x="29" y="187" type="curve"/>
			<point x="29" y="151"/>
			<point x="36" y="120"/>
			<point x="48" y="93" type="curve"/>
			<point x="15" y="65" type="line" smooth="yes"/>
			<point x="-2" y="50"/>
			<point x="-4" y="30"/>
			<point x="11" y="15" type="curve"/>
			<point x="26" y="0"/>
			<point x="56" y="1"/>
			<point x="75" y="18" type="curve"/>
			<point x="93" y="33" type="line"/>
			<point x="127" y="3"/>
			<point x="174" y="-13"/>
			<point x="231" y="-13" type="curve"/>
			<point x="414" y="-13"/>
			<point x="563" y="159"/>
			<point x="563" y="351" type="curve"/>
			<point x="563" y="377"/>
			<point x="561" y="402"/>
			<point x="556" y="425" type="curve"/>
			<point x="581" y="446" type="line" smooth="yes"/>
			<point x="598" y="460"/>
			<point x="611" y="485"/>
		</contour>
		<contour>
			<point x="493" y="351" type="curve"/>
			<point x="493" y="351" type="line"/>
			<point x="493" y="194"/>
			<point x="384" y="57"/>
			<point x="231" y="57" type="curve"/>
			<point x="201" y="57"/>
			<point x="172" y="64"/>
			<point x="148" y="80" type="curve"/>
			<point x="492" y="371" type="line"/>
			<point x="493" y="365"/>
			<point x="493" y="358"/>
		</contour>
	</outline>
</glyph>
