<?xml version="1.0" encoding="UTF-8"?>
<glyph name="F" format="2">
	<advance width="600"/>
	<unicode hex="0046"/>
	<note>
		F
  </note>
	<outline>
		<contour>
			<point x="613" y="579" type="curve"/>
			<point x="613" y="579" type="line"/>
			<point x="600" y="601"/>
			<point x="578" y="603"/>
			<point x="563" y="603" type="curve"/>
			<point x="258" y="603" type="line" smooth="yes"/>
			<point x="92" y="603"/>
			<point x="0" y="541"/>
			<point x="0" y="430" type="curve"/>
			<point x="0" y="405"/>
			<point x="10" y="383"/>
			<point x="36" y="383" type="curve"/>
			<point x="60" y="383"/>
			<point x="71" y="406"/>
			<point x="71" y="430" type="curve"/>
			<point x="71" y="502"/>
			<point x="140" y="533"/>
			<point x="257" y="533" type="curve"/>
			<point x="320" y="533" type="line"/>
			<point x="270" y="336" type="line"/>
			<point x="148" y="336" type="line" smooth="yes"/>
			<point x="128" y="336"/>
			<point x="110" y="318"/>
			<point x="110" y="300" type="curve"/>
			<point x="110" y="285"/>
			<point x="126" y="264"/>
			<point x="147" y="266" type="curve"/>
			<point x="171" y="266"/>
			<point x="215" y="266"/>
			<point x="252" y="267" type="curve"/>
			<point x="178" y="-13" type="line" smooth="yes"/>
			<point x="173" y="-33"/>
			<point x="168" y="-54"/>
			<point x="156" y="-71" type="curve"/>
			<point x="141" y="-92"/>
			<point x="121" y="-101"/>
			<point x="81" y="-101" type="curve"/>
			<point x="53" y="-101"/>
			<point x="40" y="-114"/>
			<point x="40" y="-138" type="curve"/>
			<point x="40" y="-158"/>
			<point x="53" y="-172"/>
			<point x="81" y="-172" type="curve"/>
			<point x="150" y="-172"/>
			<point x="193" y="-148"/>
			<point x="224" y="-99" type="curve"/>
			<point x="242" y="-71"/>
			<point x="248" y="-54"/>
			<point x="258" y="-13" type="curve"/>
			<point x="277" y="58"/>
			<point x="304" y="162"/>
			<point x="331" y="267" type="curve"/>
			<point x="363" y="266"/>
			<point x="400" y="266"/>
			<point x="425" y="266" type="curve"/>
			<point x="446" y="264"/>
			<point x="462" y="285"/>
			<point x="462" y="300" type="curve"/>
			<point x="462" y="318"/>
			<point x="444" y="336"/>
			<point x="424" y="336" type="curve"/>
			<point x="349" y="336" type="line"/>
			<point x="368" y="408"/>
			<point x="386" y="478"/>
			<point x="401" y="533" type="curve"/>
			<point x="544" y="533" type="line"/>
			<point x="524" y="455" type="line" smooth="yes"/>
			<point x="518" y="429"/>
			<point x="540" y="419"/>
			<point x="556" y="419" type="curve"/>
			<point x="569" y="419"/>
			<point x="589" y="427"/>
			<point x="595" y="455" type="curve"/>
			<point x="609" y="517" type="line" smooth="yes"/>
			<point x="614" y="541"/>
			<point x="621" y="566"/>
		</contour>
	</outline>
</glyph>
