<?xml version="1.0" encoding="UTF-8"?>
<glyph name="period" format="2">
	<advance width="600"/>
	<unicode hex="002E"/>
	<note>
		period
  </note>
	<outline>
		<contour>
			<point x="343" y="0" type="curve"/>
			<point x="343" y="0" type="line"/>
			<point x="377" y="0"/>
			<point x="403" y="26"/>
			<point x="403" y="56" type="curve"/>
			<point x="403" y="93"/>
			<point x="382" y="117"/>
			<point x="343" y="117" type="curve"/>
			<point x="308" y="117"/>
			<point x="283" y="92"/>
			<point x="283" y="54" type="curve"/>
			<point x="283" y="25"/>
			<point x="312" y="0"/>
		</contour>
	</outline>
</glyph>
