<?xml version="1.0" encoding="UTF-8"?>
<glyph name="nine.dnom" format="2">
	<advance width="600"/>
	<note>
		nine.dnom
  </note>
	<outline>
		<contour>
			<point x="127" y="602" type="curve"/>
			<point x="127" y="602" type="line"/>
			<point x="71" y="602"/>
			<point x="25" y="564"/>
			<point x="25" y="512" type="curve"/>
			<point x="25" y="454"/>
			<point x="70" y="424"/>
			<point x="127" y="424" type="curve"/>
			<point x="155" y="424"/>
			<point x="179" y="434"/>
			<point x="200" y="454" type="curve"/>
			<point x="196" y="393"/>
			<point x="163" y="354"/>
			<point x="115" y="354" type="curve"/>
			<point x="95" y="354"/>
			<point x="79" y="360"/>
			<point x="69" y="370" type="curve"/>
			<point x="77" y="367"/>
			<point x="90" y="377"/>
			<point x="90" y="391" type="curve"/>
			<point x="90" y="405"/>
			<point x="75" y="414"/>
			<point x="63" y="414" type="curve"/>
			<point x="47" y="414"/>
			<point x="34" y="398"/>
			<point x="34" y="379" type="curve"/>
			<point x="34" y="345"/>
			<point x="69" y="316"/>
			<point x="115" y="316" type="curve"/>
			<point x="183" y="316"/>
			<point x="238" y="375"/>
			<point x="238" y="471" type="curve"/>
			<point x="238" y="549"/>
			<point x="193" y="602"/>
		</contour>
		<contour>
			<point x="127" y="462" type="curve"/>
			<point x="127" y="462" type="line"/>
			<point x="89" y="462"/>
			<point x="63" y="482"/>
			<point x="63" y="511" type="curve"/>
			<point x="63" y="541"/>
			<point x="89" y="564"/>
			<point x="127" y="564" type="curve"/>
			<point x="159" y="564"/>
			<point x="189" y="550"/>
			<point x="198" y="500" type="curve"/>
			<point x="178" y="476"/>
			<point x="153" y="462"/>
		</contour>
	</outline>
</glyph>
