<?xml version="1.0" encoding="UTF-8"?>
<glyph name="partialdiff" format="2">
	<advance width="600"/>
	<unicode hex="2202"/>
	<note>
		partialdiff
  </note>
	<outline>
		<contour>
			<point x="257" y="595" type="curve"/>
			<point x="257" y="595" type="line"/>
			<point x="213" y="603" type="line"/>
			<point x="202" y="555" type="line"/>
			<point x="249" y="546" type="line" smooth="yes"/>
			<point x="376" y="522"/>
			<point x="438" y="434"/>
			<point x="458" y="310" type="curve"/>
			<point x="424" y="358"/>
			<point x="364" y="392"/>
			<point x="297" y="392" type="curve"/>
			<point x="185" y="392"/>
			<point x="107" y="281"/>
			<point x="107" y="192" type="curve"/>
			<point x="107" y="59"/>
			<point x="219" y="-13"/>
			<point x="307" y="-13" type="curve"/>
			<point x="419" y="-13"/>
			<point x="511" y="79"/>
			<point x="511" y="212" type="curve"/>
			<point x="511" y="467"/>
			<point x="411" y="567"/>
		</contour>
		<contour>
			<point x="463" y="201" type="curve"/>
			<point x="463" y="201" type="line"/>
			<point x="463" y="117"/>
			<point x="409" y="37"/>
			<point x="307" y="37" type="curve"/>
			<point x="246" y="37"/>
			<point x="157" y="87"/>
			<point x="157" y="192" type="curve"/>
			<point x="157" y="273"/>
			<point x="223" y="343"/>
			<point x="297" y="342" type="curve"/>
			<point x="371" y="341"/>
			<point x="463" y="292"/>
		</contour>
	</outline>
</glyph>
