<?xml version="1.0" encoding="UTF-8"?>
<glyph name="perthousand" format="2">
	<advance width="600"/>
	<unicode hex="2030"/>
	<note>
		perthousand
  </note>
	<outline>
		<contour>
			<point x="115" y="326" type="curve"/>
			<point x="115" y="326" type="line"/>
			<point x="171" y="326"/>
			<point x="213" y="388"/>
			<point x="213" y="465" type="curve"/>
			<point x="213" y="541"/>
			<point x="171" y="603"/>
			<point x="115" y="603" type="curve"/>
			<point x="58" y="603"/>
			<point x="16" y="541"/>
			<point x="16" y="465" type="curve"/>
			<point x="16" y="388"/>
			<point x="58" y="326"/>
		</contour>
		<contour>
			<point x="115" y="376" type="curve"/>
			<point x="115" y="376" type="line"/>
			<point x="86" y="376"/>
			<point x="65" y="417"/>
			<point x="65" y="463" type="curve"/>
			<point x="65" y="512"/>
			<point x="86" y="553"/>
			<point x="115" y="553" type="curve"/>
			<point x="144" y="553"/>
			<point x="163" y="512"/>
			<point x="163" y="463" type="curve"/>
			<point x="163" y="417"/>
			<point x="144" y="376"/>
		</contour>
		<contour>
			<point x="513" y="-12" type="curve"/>
			<point x="513" y="-12" type="line"/>
			<point x="569" y="-12"/>
			<point x="611" y="50"/>
			<point x="611" y="127" type="curve"/>
			<point x="611" y="203"/>
			<point x="569" y="265"/>
			<point x="513" y="265" type="curve"/>
			<point x="456" y="265"/>
			<point x="414" y="203"/>
			<point x="414" y="127" type="curve"/>
			<point x="414" y="50"/>
			<point x="456" y="-12"/>
		</contour>
		<contour>
			<point x="298" y="-13" type="curve"/>
			<point x="298" y="-13" type="line"/>
			<point x="354" y="-13"/>
			<point x="396" y="49"/>
			<point x="396" y="126" type="curve"/>
			<point x="396" y="202"/>
			<point x="354" y="264"/>
			<point x="298" y="264" type="curve"/>
			<point x="241" y="264"/>
			<point x="199" y="202"/>
			<point x="199" y="126" type="curve"/>
			<point x="199" y="49"/>
			<point x="241" y="-13"/>
		</contour>
		<contour>
			<point x="513" y="38" type="curve"/>
			<point x="513" y="38" type="line"/>
			<point x="484" y="38"/>
			<point x="463" y="79"/>
			<point x="463" y="125" type="curve"/>
			<point x="463" y="174"/>
			<point x="484" y="215"/>
			<point x="513" y="215" type="curve"/>
			<point x="542" y="215"/>
			<point x="561" y="174"/>
			<point x="561" y="125" type="curve"/>
			<point x="561" y="79"/>
			<point x="542" y="38"/>
		</contour>
		<contour>
			<point x="298" y="37" type="curve"/>
			<point x="298" y="37" type="line"/>
			<point x="269" y="37"/>
			<point x="248" y="78"/>
			<point x="248" y="124" type="curve"/>
			<point x="248" y="173"/>
			<point x="269" y="214"/>
			<point x="298" y="214" type="curve"/>
			<point x="327" y="214"/>
			<point x="346" y="173"/>
			<point x="346" y="124" type="curve"/>
			<point x="346" y="78"/>
			<point x="327" y="37"/>
		</contour>
		<contour>
			<point x="327" y="492" type="curve"/>
			<point x="-14" y="15" type="line"/>
			<point x="24" y="-15" type="line"/>
			<point x="443" y="573" type="line"/>
			<point x="406" y="603" type="line"/>
			<point x="394" y="586" type="line"/>
			<point x="355" y="537"/>
			<point x="287" y="517"/>
			<point x="260" y="517" type="curve"/>
			<point x="235" y="517"/>
			<point x="190" y="557"/>
			<point x="174" y="576" type="curve"/>
			<point x="202" y="502" type="line"/>
			<point x="206" y="490"/>
			<point x="232" y="471"/>
			<point x="260" y="471" type="curve"/>
			<point x="282" y="471"/>
			<point x="312" y="474"/>
		</contour>
	</outline>
</glyph>
