<?xml version="1.0" encoding="UTF-8"?>
<glyph name="pi" format="2">
	<advance width="600"/>
	<unicode hex="03C0"/>
	<note>
		pi
  </note>
	<outline>
		<contour>
			<point x="533" y="41" type="curve"/>
			<point x="563" y="109" type="line"/>
			<point x="516" y="128" type="line"/>
			<point x="485" y="55"/>
			<point x="477" y="37"/>
			<point x="461" y="37" type="curve"/>
			<point x="449" y="37"/>
			<point x="443" y="45"/>
			<point x="443" y="72" type="curve"/>
			<point x="443" y="380" type="line"/>
			<point x="516" y="380" type="line"/>
			<point x="516" y="430" type="line"/>
			<point x="66" y="430" type="line"/>
			<point x="66" y="380" type="line"/>
			<point x="139" y="380" type="line"/>
			<point x="139" y="0" type="line"/>
			<point x="189" y="0" type="line"/>
			<point x="189" y="380" type="line"/>
			<point x="393" y="380" type="line"/>
			<point x="393" y="77" type="line" smooth="yes"/>
			<point x="393" y="3"/>
			<point x="422" y="-13"/>
			<point x="458" y="-13" type="curve"/>
			<point x="497" y="-13"/>
			<point x="522" y="16"/>
		</contour>
	</outline>
</glyph>
