<?xml version="1.0" encoding="UTF-8"?>
<glyph name="Ucircumflex" format="2">
	<advance width="600"/>
	<unicode hex="00DB"/>
	<note>
		Ucircumflex
  </note>
	<outline>
		<contour>
			<point x="499" y="632" type="line"/>
			<point x="511" y="660" type="line"/>
			<point x="299" y="751" type="line"/>
			<point x="87" y="660" type="line"/>
			<point x="99" y="632" type="line"/>
			<point x="299" y="697" type="line"/>
		</contour>
		<contour>
			<point x="243" y="590" type="line"/>
			<point x="28" y="590" type="line"/>
			<point x="28" y="540" type="line"/>
			<point x="99" y="540" type="line"/>
			<point x="99" y="212" type="line" smooth="yes"/>
			<point x="99" y="49"/>
			<point x="197" y="-13"/>
			<point x="300" y="-13" type="curve"/>
			<point x="403" y="-13"/>
			<point x="501" y="48"/>
			<point x="501" y="212" type="curve"/>
			<point x="501" y="540" type="line"/>
			<point x="572" y="540" type="line"/>
			<point x="572" y="590" type="line"/>
			<point x="357" y="590" type="line"/>
			<point x="357" y="540" type="line"/>
			<point x="451" y="540" type="line"/>
			<point x="451" y="222" type="line" smooth="yes"/>
			<point x="451" y="82"/>
			<point x="380" y="37"/>
			<point x="300" y="37" type="curve"/>
			<point x="220" y="37"/>
			<point x="149" y="82"/>
			<point x="149" y="222" type="curve"/>
			<point x="149" y="540" type="line"/>
			<point x="243" y="540" type="line"/>
		</contour>
	</outline>
</glyph>
